<svg
  className="w-auto h-14"
  width="100"
  height="100"
  viewBox="0 0 100 100"
  fill="none"
  xmlns="http://www.w3.org/2000/svg"
>
  <path d="M100 50.5C100 78.1142 77.6142 100.5 50 100.5C22.3858 100.5 0 78.1142 0 50.5C0 22.8858 22.3858 0.5 50 0.5C77.6142 0.5 100 22.8858 100 50.5Z" fill="#ffffff" />
  <path d="M0.00088501 51.6637L0.0366856 49.2874C0.0994986 49.1965 0.148224 49.1514 0.149767 49.1047C0.156341 48.9061 0.148962 48.7071 0.149499 48.4743C0.154038 48.3268 0.15576 48.2132 0.1711 48.0731C0.179642 48.0274 0.174566 48.0082 0.170898 47.9481L0.247844 46.6597C0.337491 45.3372 0.498448 44.0231 0.701042 42.7132C0.960546 41.0354 1.30686 39.3758 1.73897 37.7347C2.70493 34.066 4.07376 30.5531 5.84646 27.1988C8.4868 22.2027 11.8749 17.7764 16.0078 13.9244C19.7707 10.4173 23.9763 7.55509 28.622 5.34321C31.3811 4.02955 34.2382 2.98228 37.1914 2.19612C38.8027 1.76719 40.4311 1.41622 42.0772 1.15507C43.0176 1.00587 43.9633 0.88237 44.9106 0.786171C45.8576 0.689995 46.8096 0.642276 47.7971 0.581296C47.9881 0.586216 48.1415 0.58313 48.3348 0.585322L48.956 0.590465C49.047 0.59042 49.1353 0.582571 49.1959 0.500885C49.7643 0.500885 50.3326 0.500885 50.9636 0.532057C51.3123 0.569356 51.5984 0.575483 51.9226 0.585881L52.4612 0.58161L54.8174 0.750952C56.0804 0.846055 57.333 1.02781 58.5802 1.24024C61.0155 1.65472 63.4161 2.25221 65.7616 3.02763C68.4357 3.91155 71.0184 5.01484 73.5045 6.33908C78.3566 8.92358 82.6693 12.2183 86.443 16.2151C88.5031 18.397 90.3508 20.748 91.9871 23.2645C93.8263 26.0931 95.3669 29.075 96.6001 32.2156C97.899 35.5237 98.8386 38.93 99.3982 42.4405C99.6584 44.0732 99.8752 45.7103 99.9157 47.4055L99.9171 48.2964C99.9127 48.4758 99.9076 48.6182 99.9198 48.7591C99.9238 48.805 99.9726 48.8471 100.001 48.8909L99.9695 52.0875C99.9329 52.3462 99.9276 52.5444 99.9188 52.7826L99.9229 53.5896C99.9116 54.6748 99.7804 55.7084 99.6584 56.7434C99.4961 58.1191 99.2646 59.4833 98.9801 60.8379C98.5607 62.8343 98.0191 64.7979 97.3557 66.7278C95.9057 70.9458 93.9256 74.8974 91.417 78.5854C88.9913 82.1515 86.1515 85.3505 82.902 88.1842C79.5626 91.0964 75.9003 93.5243 71.9148 95.4629C69.3282 96.721 66.6529 97.7468 63.8881 98.5406C61.9553 99.0954 59.9973 99.5384 58.0109 99.8456C56.9671 100.007 55.9157 100.121 54.8659 100.24C54.2013 100.316 53.5333 100.362 52.83 100.414C52.6695 100.413 52.5458 100.419 52.3841 100.419L51.8487 100.416C51.625 100.413 51.4407 100.407 51.2575 100.418C51.1949 100.422 51.1352 100.472 51.0742 100.501C50.1779 100.501 49.2815 100.501 48.3227 100.472C48.0924 100.437 47.9246 100.432 47.7196 100.419L47.191 100.404C46.9315 100.377 46.7096 100.351 46.487 100.338C45.3418 100.272 44.2045 100.137 43.0682 99.982C41.1935 99.7257 39.3413 99.358 37.5109 98.8826C33.8263 97.9257 30.296 96.5682 26.9229 94.7994C21.9452 92.1892 17.5333 88.8375 13.678 84.7487C11.4433 82.3787 9.46122 79.8141 7.72698 77.0581C6.05019 74.3934 4.64266 71.592 3.49619 68.6596C2.56285 66.2724 1.82381 63.8257 1.2705 61.3237C1.00375 60.1175 0.771458 58.9039 0.614749 57.6777L0.332728 55.2833C0.260523 54.5282 0.222844 53.7697 0.177831 52.9841C0.176489 52.9379 0.167276 52.9204 0.155782 52.8686C0.151243 52.7203 0.148984 52.6062 0.154016 52.4531C0.159673 52.2578 0.147754 52.1007 0.159472 51.9454C0.169848 51.808 0.0810058 51.7419 0.00088501 51.6637ZM44.3019 74.5129C44.2968 74.5291 44.2916 74.5453 44.2101 74.5695L40.9453 74.9624C41.1035 74.9962 41.1596 75.0137 41.2169 75.0196L42.2397 75.1207L46.0676 75.47C47.8649 75.6277 49.647 75.4844 51.3939 75.0646C56.505 73.8363 60.4113 70.9548 63.0974 66.4289C63.2112 66.2373 63.3351 66.0503 63.4693 65.8725C64.7022 64.2384 66.0699 62.7258 67.5658 61.3284C67.682 61.2198 67.8297 61.1343 67.8953 60.9648C67.7479 60.641 67.6725 60.29 67.4889 59.9559L66.8499 60.1843C66.6412 60.2629 66.4345 60.347 66.2275 60.4305L65.5663 60.6995C65.3685 60.775 65.1855 60.8954 64.9342 60.9324C65.4924 58.753 66.0808 56.616 66.4916 54.4371C66.471 54.4662 66.4965 54.4108 66.4916 54.4371C66.8554 54.3719 67.2677 54.4883 67.6491 54.4165C67.7133 54.0528 67.7632 53.7048 67.7736 53.3402C67.2188 53.1592 66.6413 53.2099 66.0832 53.0548C66.1688 52.4926 66.1866 51.9431 66.2801 51.4187C67.2276 51.0649 72.8852 49.3232 73.2316 49.2811C73.0735 49.5138 72.9154 49.7279 72.7767 49.954C72.4422 50.4994 72.1014 51.042 71.7943 51.6028C71.6535 51.8601 71.559 52.1512 71.4928 52.4384C71.4229 52.7414 71.4099 53.0577 71.3762 53.3687C71.3692 53.4335 71.3805 53.5003 71.3853 53.6111L71.845 53.3431L82.7924 46.5848L87.0831 43.9259C87.1494 43.8847 87.2641 43.8643 87.2112 43.7372L86.7779 43.6288L75.7319 41.0678C75.061 40.9125 74.3789 40.8369 73.6915 40.8755C72.918 40.9189 72.1461 40.9906 71.3739 41.0544C71.2658 41.0633 71.1598 41.0978 70.99 41.1337C71.628 41.4268 72.2434 41.5967 72.8453 41.8906C72.4845 42.0449 72.1327 41.9959 71.7986 42.058C71.4773 42.1178 71.1483 42.1373 70.8224 42.1724L69.8002 42.2792C69.4743 42.3141 69.1449 42.3313 68.8239 42.3922C68.493 42.455 68.1423 42.4041 67.7811 42.5656C67.9113 42.6278 68.0018 42.6746 68.0951 42.715L69.161 43.1735C70.3624 43.6943 71.5586 44.2264 72.7179 44.8373C72.7912 44.876 72.9 44.8877 72.8778 45.0146C70.0716 45.5738 66.9355 46.1139 66.5394 46.1012C66.5349 45.9568 66.5262 45.8106 66.5264 45.6644L66.5436 37.347L66.5898 34.6649C66.6116 33.9357 66.6577 33.2071 66.6926 32.4863C66.3692 32.147 64.9407 30.9823 64.6226 30.8061L64.8541 31.8699C64.9256 32.2254 65.0685 32.5709 65.0388 32.9493C64.7428 32.8283 64.4735 32.7061 64.1959 32.6073C63.733 32.4425 63.3178 32.5537 62.9431 32.8564C62.8538 32.9285 62.7573 32.9916 62.6395 33.0765C62.6 32.9125 62.5611 32.7865 62.5401 32.6575C62.3715 31.6215 62.3565 30.5807 62.4647 29.5385C62.482 29.3725 62.4822 29.2165 62.4464 29.0535L61.7265 25.7368C61.7085 25.6541 61.672 25.5754 61.6424 25.4901C61.4887 25.4825 61.3557 25.4699 61.2227 25.4705C60.9546 25.4718 60.7674 25.6015 60.6789 25.8538C60.6299 25.9937 60.5913 26.1397 60.5696 26.2861L60.3698 27.7471L60.0127 30.2687C59.9388 30.7614 59.7685 31.2255 59.4616 31.6198C59.3042 31.822 59.245 32.0299 59.2335 32.2757L59.0211 36.5626L58.3893 48.4831C58.3846 48.5703 58.3643 48.6567 58.3483 48.7627L50.5303 51.5488L50.6798 51.0822L53.458 46.2383C53.6065 45.9783 53.7732 45.7349 53.9639 45.5043L58.1737 40.399C58.2448 40.3126 58.3042 40.2166 58.4016 40.0791L58.0495 40.0419L56.5826 39.8905C56.3381 39.8586 56.1169 39.8837 55.8874 39.9755L51.9865 41.517L46.1294 43.8156C46.0253 43.8565 45.9255 43.9265 45.7889 43.8692L45.8204 43.2815L46.225 38.2916L46.3471 36.8582C46.3536 36.7033 46.3536 36.7033 46.2824 36.516C46.2386 36.6673 46.2032 36.7892 46.1429 36.9712L44.8234 40.4813C44.2377 42.0941 43.531 43.6495 42.6901 45.1451C42.5892 45.3244 42.4663 45.4342 42.2664 45.5016C40.9685 45.9388 39.7156 46.4994 38.5248 47.1758C38.4514 47.2175 38.3702 47.2457 38.2632 47.2933C38.2556 47.1861 38.2451 47.1157 38.2464 47.0455L38.3435 41.7711L38.3028 30.9965L38.2249 26.7948C38.2225 26.6756 38.2415 26.5473 38.156 26.3785C37.6171 28.1098 37.2273 29.8208 36.6485 31.4269L34.3584 32.5337C34.262 32.4579 34.162 32.3682 34.0513 32.2944C33.8511 32.1609 33.6351 32.0601 33.3881 32.0569C33.0392 32.0524 32.7672 32.3024 32.7378 32.6522L32.4854 35.681L32.2128 39.1118C32.2076 39.1765 32.2391 39.2636 32.1218 39.3121L31.8176 39.0829L27.8081 35.8675C27.7356 35.8162 27.6812 35.7255 27.5543 35.7403C27.5969 35.8798 27.6325 35.9968 27.7405 36.0865C27.7627 36.1049 27.7893 36.175 27.8335 36.2517L30.135 40.3374L31.7188 43.1872C31.8483 43.4167 31.9083 43.637 31.8761 43.9062C31.8196 44.379 31.8029 44.8567 31.7726 45.3325L31.4648 50.1949L31.3845 51.2691L31.1999 51.3936C30.938 51.5761 30.6594 51.6878 30.3287 51.6865C30.1564 51.6859 29.978 51.7492 29.8122 51.8103C28.8322 52.1716 27.8997 52.6323 27.0033 53.1679C26.8248 53.2745 26.6406 53.3723 26.4543 53.4647C25.5698 53.9038 24.7437 54.4319 23.9957 55.0778C23.8247 55.2255 23.6401 55.3422 23.4374 55.441C22.6072 55.8457 21.7531 56.1908 20.8814 56.4946C20.7309 56.547 20.5622 56.5673 20.4476 56.6878C20.4674 57.0551 20.4983 57.4108 20.5023 57.7667C20.5065 58.1346 20.5822 58.5052 20.4859 58.9067C20.1589 58.8262 19.9075 58.5973 19.6131 58.5152C19.615 58.5028 19.5827 58.5529 19.6131 58.5152C19.5068 59.1802 19.4119 59.9095 19.5177 60.5769C19.5813 60.9784 19.7228 61.3531 20.0573 61.6263C20.1318 61.6871 20.1719 61.7902 20.2271 61.8729L18.7977 64.5662C18.7771 64.6399 18.8022 64.69 18.8798 64.6609C18.9444 64.6368 18.9974 64.5818 19.1093 64.5113L21.5171 63.1499L27.6976 59.6666C27.8926 59.5566 28.0893 59.4686 28.3158 59.4268C28.9884 59.3025 29.6549 59.1455 30.3273 59.0205C30.6127 58.9675 30.8939 58.8691 31.2136 58.8811L31.4204 60.2549C31.7675 62.2682 32.2915 64.2343 33.005 66.1493C33.3429 67.0561 33.7112 67.9494 34.1809 68.7972C34.4193 69.2274 34.6833 69.6414 35.0103 70.0118C35.2801 70.3175 35.5909 70.5641 35.9767 70.7114C36.1848 70.7909 36.3837 70.8945 36.5923 70.9725C36.8327 71.0625 37.0407 71.1979 37.24 71.3575C38.0676 72.0203 38.9605 72.5804 39.9096 73.054C41.1549 73.6754 42.4627 74.1085 43.8843 74.4131L44.3019 74.5129Z" fill="#040707" />
  <path d="M50.4613 57.1339L54.2386 55.6736C54.2364 55.7157 54.2443 55.6714 54.2386 55.6736C53.8486 55.6534 53.4659 55.6325 53.0269 55.6679C53.135 55.6018 53.1929 55.5504 53.2604 55.5277L57.9187 53.9717C57.9337 54.0441 57.9533 54.087 57.9494 54.1277L57.6106 57.6415C57.6066 57.6825 57.5807 57.7214 57.5595 57.7753L57.0028 57.7414C56.9477 57.9171 56.9231 58.0895 56.8998 58.2614C56.7671 59.2377 56.5324 60.1905 56.2446 61.1312C56.192 61.3029 56.1023 61.4495 55.987 61.5923C55.7632 61.8694 55.5633 62.1662 55.3604 62.4596L54.1453 64.2252C54.0084 64.4187 53.8396 64.5907 53.6767 64.7644C53.3553 65.1072 52.9806 65.3544 52.5171 65.4838C51.8445 65.6716 51.1881 65.9177 50.5149 66.1026C49.5636 66.3639 48.5868 66.4683 47.6015 66.5098C47.5866 66.3952 47.6728 66.3837 47.7299 66.3534C47.8696 66.2792 48.0386 66.2598 48.1931 66.1086C47.8186 66.0125 47.4758 65.9582 47.1366 65.8894C46.2619 65.712 45.3766 65.5891 44.5132 65.3537C43.434 65.0596 42.3875 64.6805 41.3768 64.2004C41.1857 64.1096 41.0224 63.9898 40.8637 63.8515C39.2657 62.4583 38.3991 60.6694 38.0269 58.6148C37.7651 57.1693 37.7492 55.7131 37.8557 54.2397C37.9597 54.1579 38.0617 54.073 38.1684 53.9945L40.943 51.9594C41.0983 51.8463 41.2634 51.7409 41.4369 51.6593L46.1678 49.4503C46.2543 49.4102 46.3365 49.3149 46.4751 49.3809L46.2243 49.7822L40.1134 59.132C39.9604 59.3653 39.8804 59.5958 39.8814 59.8768C39.8844 60.6366 39.8642 61.3965 39.8534 62.1565L39.8533 62.362L41.6174 60.1707C41.5952 60.1585 41.6497 60.1707 41.6174 60.1707C41.9185 60.3361 42.2961 60.2898 42.6053 60.1696L50.1385 57.2612L50.4613 57.1339Z" fill="#060909" />
</svg>